{
  "RESULT": "SUCCESS",
  "ERRMSG": "",
  "ERRDOC": "",
  "ACCTKIND": "",
  "NUMBER": "",
  "CURBAL": "",
  "ENBBAL": "",
  "ACCTNM": "",
  "OPENDATE": "",
  "LIST": [{
    "NUMBER": "108-910167-60107",
    "ACCTKIND": " 하나여우통장 ",
    "CURBAL": "5,600",
    "ENBBAL": "",
    "OPENDATE": "2010-05-14",
    "CLOSEDATE": "",
    "ACCTNM": "",
    "CURRCD": ""
  }, {
    "NUMBER": "108-910230-51707",
    "ACCTKIND": " 저축예금 ",
    "CURBAL": "427,693",
    "ENBBAL": "",
    "OPENDATE": "2014-05-08",
    "CLOSEDATE": "",
    "ACCTNM": "",
    "CURRCD": ""
  }, {
    "NUMBER": "332-910100-75425",
    "ACCTKIND": " 청약종합저축 ",
    "CURBAL": "400,000",
    "ENBBAL": "",
    "OPENDATE": "2015-03-16",
    "CLOSEDATE": "",
    "ACCTNM": "",
    "CURRCD": ""
  }]
}
